<?xml version="1.0" encoding="utf-8"?>
<!-- Generator: Adobe Illustrator 21.1.0, SVG Export Plug-In . SVG Version: 6.00 Build 0)  -->
<svg version="1.1" id="Layer_1" xmlns="http://www.w3.org/2000/svg" xmlns:xlink="http://www.w3.org/1999/xlink" x="0px" y="0px"
	 viewBox="0 0 24 36" style="enable-background:new 0 0 24 36;" xml:space="preserve">
<style type="text/css">
	.st0{fill:#F66F26;}
	.st1{opacity:0.2;fill:#1B1F21;enable-background:new    ;}
	.st2{fill:#FFFFFF;}
</style>
<path class="st0" d="M12,0L12,0C5.4,0,0.1,5.4,0.1,12c0,2.9,1.1,6,3.1,9.1c3.2,4.9,8.8,9,8.8,9s5.7-4.1,8.8-9c2-3.1,3.1-6.2,3.1-9.1
	C23.9,5.4,18.6,0,12,0z"/>
<title>svg-property-listing-default</title>
<desc>Created with Sketch.</desc>
<ellipse id="Oval-2" class="st1" cx="12" cy="35" rx="6.5" ry="1"/>
<path class="st2" d="M18,11.8L18,11.8l-6-5.5l-6,5.5c-0.2,0.2-0.2,0.5,0,0.7l0,0c0.2,0.2,0.5,0.2,0.7,0l0,0L7,12.2V18l0,0l0,0h4v-5
	h2v5h4v-5.7l0.3,0.3c0.2,0.2,0.5,0.2,0.7,0l0,0C18.2,12.3,18.2,12,18,11.8z M14,17v-5h-4v5H8v-5.6l4-3.7l4,3.7V17H14z"/>
</svg>
